[
	{
		"id": "8abce04e-9d60-43ce-9918-cf0377265bcd",
		"title": "Gold",
		"artist": "Abba",
		"price": 12.99,
		"tracks": 12
	},
	{
		"id": "0ba644c8-c135-4bfe-83fe-e224142d2065",
		"title": "Spice World",
		"artist": "Spice Girls",
		"price": 4.99,
		"tracks": 9
	},
	{
		"id": "270e76af-8991-4666-ab32-93389b6c38ec",
		"title": "Money for Nothing",
		"artist": "Dire Straits",
		"price": 7.99,
		"tracks": 13
	},
	{
		"id": "d881253f-50f8-4336-bc55-ea48cffbee5a",
		"title": "True",
		"artist": "Spandau Ballet",
		"price": 5.99,
		"tracks": 10
	},
	{
		"id": "45c72a6d-915e-49d1-b293-236b85875327",
		"title": "Justin",
		"artist": "Justin Bieber",
		"price": 4.99,
		"tracks": 10
	}
]
